<?xml version="1.0" encoding="UTF-8"?>
<OAI-PMH xmlns="http://www.openarchives.org/OAI/2.0/" xmlns:xsi="http://www.w3.org/2001/XMLSchema-instance" xsi:schemaLocation="http://www.openarchives.org/OAI/2.0/ http://www.openarchives.org/OAI/2.0/OAI-PMH.xsd">
    <responseDate>2018-11-13T11:47:39Z</responseDate>
    <request verb="ListRecords" metadataPrefix="arXiv">http://export.arxiv.org/oai2</request>
    <ListRecords>
        <record>
            <header>
                <identifier>oai:arXiv.org:0704.1000</identifier>
                <datestamp>2008-11-26</datestamp>
                <setSpec>physics:hep-ex</setSpec>
            </header>
            <metadata>
                <arXiv xmlns="http://arxiv.org/OAI/arXiv/" xmlns:xsi="http://www.w3.org/2001/XMLSchema-instance" xsi:schemaLocation="http://arxiv.org/OAI/arXiv/ http://arxiv.org/OAI/arXiv.xsd">
                    <id>0704.1000</id>
                    <created>2007-04-999</created>
                    <authors>
                        <author>
                            <keyname>Surname</keyname>
                            <forenames>Some other</forenames>
                        </author>
                    </authors>
                    <title> Measurement of something interesting</title>
                    <abstract>This paper did something clever and interesting</abstract>
                </arXiv>
            </metadata>
        </record>
        <resumptionToken cursor="0" completeListSize="1463679"></resumptionToken>
    </ListRecords>
</OAI-PMH>
